…
    ## Warning in mask$eval_all_mutate(quo): NAs introduced by coercion

``` r
homicide_df_clean_1
```

    ## # A tibble: 39,693 × 12
    ##    uid       repor…¹ victi…² victi…³ victi…⁴ victi…⁵ victi…⁶ city_…⁷   lat   lon
    ##    <chr>       <dbl> <chr>   <chr>   <chr>     <dbl> <chr>   <chr>   <dbl> <dbl>
    ##  1 Alb-0000…  2.01e7 SATTER… VIVIANA White        15 Female  Albuqu…  35.1 -107.
    ##  2 Alb-0000…  2.01e7 MULA    VIVIAN  White        72 Female  Albuqu…  35.1 -107.
    ##  3 Alb-0000…  2.01e7 BOOK    GERALD… White        91 Female  Albuqu…  35.2 -107.
    ##  4 Alb-0000…  2.01e7 MARTIN… GUSTAVO White        56 Male    Albuqu…  35.1 -107.
    ##  5 Alb-0000…  2.01e7 LUJAN   KEVIN   White        NA Male    Albuqu…  35.1 -107.
    ##  6 Alb-0000…  2.01e7 GRAY    STEFAN… White        43 Female  Albuqu…  35.1 -107.
    ##  7 Alb-0000…  2.01e7 DAVID   LARRY   White        52 Male    Albuqu…  NA     NA 
    ##  8 Alb-0000…  2.01e7 BRITO   ELIZAB… White        22 Female  Albuqu…  35.1 -107.
    ##  9 Alb-0000…  2.01e7 KING    TEVION  Black        15 Male    Albuqu…  35.1 -107.
    ## 10 Alb-0000…  2.01e7 BOYKIN  CEDRIC  Black        25 Male    Albuqu…  35.1 -107.
    ## # … with 39,683 more rows, 2 more variables: disposition <chr>, resolved <dbl>,
    ## #   and abbreviated variable names ¹​reported_date, ²​victim_last, ³​victim_first,
    ## #   ⁴​victim_race, ⁵​victim_age, ⁶​victim_sex, ⁷​city_state
…
